{
  "project_info": {
    "project_number": "276918806412",
    "project_id": "emaidcrew-cfcb0",
    "storage_bucket": "emaidcrew-cfcb0.appspot.com"
  },
  "client": [
    {
      "client_info": {
        "mobilesdk_app_id": "1:276918806412:android:bf26cf4f9c74395a3858a9",
        "android_client_info": {
          "package_name": "com.azinova.emaidcrewapp"
        }
      },
      "oauth_client": [
        {
          "client_id": "276918806412-k4dnm0bpc2to9ug0k90cmoapm9d7q0e2.apps.googleusercontent.com",
          "client_type": 3
        }
      ],
      "api_key": [
        {
          "current_key": "AIzaSyBp1KR8T8-uaxCml5Z87mBxqePs_LLVH64"
        }
      ],
      "services": {
        "appinvite_service": {
          "other_platform_oauth_client": [
            {
              "client_id": "276918806412-k4dnm0bpc2to9ug0k90cmoapm9d7q0e2.apps.googleusercontent.com",
              "client_type": 3
            },
            {
              "client_id": "276918806412-ppe4vqvspv62s7kaik7qp9qsat5p479m.apps.googleusercontent.com",
              "client_type": 2,
              "ios_info": {
                "bundle_id": "com.emaid.EmaidCrewApp"
              }
            }
          ]
        }
      }
    }
  ],
  "configuration_version": "1"
}